<?xml version="1.0" standalone="no"?>
<!DOCTYPE svg PUBLIC "-//W3C//DTD SVG 1.1//EN" "http://www.w3.org/Graphics/SVG/1.1/DTD/svg11.dtd" >
<svg xmlns="http://www.w3.org/2000/svg">
<metadata>Generated by IcoMoon</metadata>
<defs>
<font id="icomoon" horiz-adv-x="1024">
<font-face units-per-em="1024" ascent="960" descent="-64" />
<missing-glyph horiz-adv-x="1024" />
<glyph unicode="&#x20;" horiz-adv-x="512" d="" />
<glyph unicode="&#xf007;" glyph-name="user" horiz-adv-x="731" d="M731.429 151.428c0-83.429-54.857-151.429-121.714-151.429h-488c-66.857 0-121.714 68-121.714 151.429 0 150.286 37.143 324 186.857 324 46.286-45.143 109.143-73.143 178.857-73.143s132.571 28 178.857 73.143c149.714 0 186.857-173.714 186.857-324zM585.143 658.286c0-121.143-98.286-219.429-219.429-219.429s-219.429 98.286-219.429 219.429 98.286 219.429 219.429 219.429 219.429-98.286 219.429-219.429z" />
<glyph unicode="&#xf023;" glyph-name="lock" horiz-adv-x="658" d="M182.857 512h292.571v109.714c0 80.571-65.714 146.286-146.286 146.286s-146.286-65.714-146.286-146.286v-109.714zM658.286 457.143v-329.143c0-30.286-24.571-54.857-54.857-54.857h-548.571c-30.286 0-54.857 24.571-54.857 54.857v329.143c0 30.286 24.571 54.857 54.857 54.857h18.286v109.714c0 140.571 115.429 256 256 256s256-115.429 256-256v-109.714h18.286c30.286 0 54.857-24.571 54.857-54.857z" />
<glyph unicode="&#xf054;" glyph-name="chevron-right" horiz-adv-x="695" d="M632.571 449.714l-424-424c-14.286-14.286-37.143-14.286-51.429 0l-94.857 94.857c-14.286 14.286-14.286 37.143 0 51.429l303.429 303.429-303.429 303.429c-14.286 14.286-14.286 37.143 0 51.429l94.857 94.857c14.286 14.286 37.143 14.286 51.429 0l424-424c14.286-14.286 14.286-37.143 0-51.429z" />
<glyph unicode="&#xf058;" glyph-name="check-circle" horiz-adv-x="878" d="M733.714 531.428c0 9.714-3.429 19.429-10.286 26.286l-52 51.429c-6.857 6.857-16 10.857-25.714 10.857s-18.857-4-25.714-10.857l-233.143-232.571-129.143 129.143c-6.857 6.857-16 10.857-25.714 10.857s-18.857-4-25.714-10.857l-52-51.429c-6.857-6.857-10.286-16.571-10.286-26.286s3.429-18.857 10.286-25.714l206.857-206.857c6.857-6.857 16.571-10.857 25.714-10.857 9.714 0 19.429 4 26.286 10.857l310.286 310.286c6.857 6.857 10.286 16 10.286 25.714zM877.714 438.857c0-242.286-196.571-438.857-438.857-438.857s-438.857 196.571-438.857 438.857 196.571 438.857 438.857 438.857 438.857-196.571 438.857-438.857z" />
<glyph unicode="&#xf06a;" glyph-name="exclamation-circle" horiz-adv-x="878" d="M438.857 877.714c242.286 0 438.857-196.571 438.857-438.857s-196.571-438.857-438.857-438.857-438.857 196.571-438.857 438.857 196.571 438.857 438.857 438.857zM512 165.143v108.571c0 10.286-8 18.857-17.714 18.857h-109.714c-10.286 0-18.857-8.571-18.857-18.857v-108.571c0-10.286 8.571-18.857 18.857-18.857h109.714c9.714 0 17.714 8.571 17.714 18.857zM510.857 361.714l10.286 354.857c0 4-1.714 8-5.714 10.286-3.429 2.857-8.571 4.571-13.714 4.571h-125.714c-5.143 0-10.286-1.714-13.714-4.571-4-2.286-5.714-6.286-5.714-10.286l9.714-354.857c0-8 8.571-14.286 19.429-14.286h105.714c10.286 0 18.857 6.286 19.429 14.286z" />
<glyph unicode="&#xf0e0;" glyph-name="envelope" d="M1024 545.143v-453.714c0-50.286-41.143-91.429-91.429-91.429h-841.143c-50.286 0-91.429 41.143-91.429 91.429v453.714c17.143-18.857 36.571-35.429 57.714-49.714 94.857-64.571 190.857-129.143 284-197.143 48-35.429 107.429-78.857 169.714-78.857h1.143c62.286 0 121.714 43.429 169.714 78.857 93.143 67.429 189.143 132.571 284.571 197.143 20.571 14.286 40 30.857 57.143 49.714zM1024 713.143c0-64-47.429-121.714-97.714-156.571-89.143-61.714-178.857-123.429-267.429-185.714-37.143-25.714-100-78.286-146.286-78.286h-1.143c-46.286 0-109.143 52.571-146.286 78.286-88.571 62.286-178.286 124-266.857 185.714-40.571 27.429-98.286 92-98.286 144 0 56 30.286 104 91.429 104h841.143c49.714 0 91.429-41.143 91.429-91.429z" />
<glyph unicode="&#xf104;" glyph-name="angle-left" horiz-adv-x="384" d="M358.286 640c0-4.571-2.286-9.714-5.714-13.143l-224.571-224.571 224.571-224.571c3.429-3.429 5.714-8.571 5.714-13.143s-2.286-9.714-5.714-13.143l-28.571-28.571c-3.429-3.429-8.571-5.714-13.143-5.714s-9.714 2.286-13.143 5.714l-266.286 266.286c-3.429 3.429-5.714 8.571-5.714 13.143s2.286 9.714 5.714 13.143l266.286 266.286c3.429 3.429 8.571 5.714 13.143 5.714s9.714-2.286 13.143-5.714l28.571-28.571c3.429-3.429 5.714-8 5.714-13.143z" />
<glyph unicode="&#xf105;" glyph-name="angle-right" horiz-adv-x="347" d="M340 402.286c0-4.571-2.286-9.714-5.714-13.143l-266.286-266.286c-3.429-3.429-8.571-5.714-13.143-5.714s-9.714 2.286-13.143 5.714l-28.571 28.571c-3.429 3.429-5.714 8-5.714 13.143 0 4.571 2.286 9.714 5.714 13.143l224.571 224.571-224.571 224.571c-3.429 3.429-5.714 8.571-5.714 13.143s2.286 9.714 5.714 13.143l28.571 28.571c3.429 3.429 8.571 5.714 13.143 5.714s9.714-2.286 13.143-5.714l266.286-266.286c3.429-3.429 5.714-8.571 5.714-13.143z" />
<glyph unicode="&#xf10b;" glyph-name="mobile, mobile-phone" horiz-adv-x="439" d="M265.143 146.286c0 25.143-20.571 45.714-45.714 45.714s-45.714-20.571-45.714-45.714 20.571-45.714 45.714-45.714 45.714 20.571 45.714 45.714zM384 237.714v402.286c0 9.714-8.571 18.286-18.286 18.286h-292.571c-9.714 0-18.286-8.571-18.286-18.286v-402.286c0-9.714 8.571-18.286 18.286-18.286h292.571c9.714 0 18.286 8.571 18.286 18.286zM274.286 722.286c0 5.143-4 9.143-9.143 9.143h-91.429c-5.143 0-9.143-4-9.143-9.143s4-9.143 9.143-9.143h91.429c5.143 0 9.143 4 9.143 9.143zM438.857 731.428v-585.143c0-40-33.143-73.143-73.143-73.143h-292.571c-40 0-73.143 33.143-73.143 73.143v585.143c0 40 33.143 73.143 73.143 73.143h292.571c40 0 73.143-33.143 73.143-73.143z" />
<glyph unicode="&#xf16d;" glyph-name="instagram" horiz-adv-x="878" d="M585.143 438.857c0 80.571-65.714 146.286-146.286 146.286s-146.286-65.714-146.286-146.286 65.714-146.286 146.286-146.286 146.286 65.714 146.286 146.286zM664 438.857c0-124.571-100.571-225.143-225.143-225.143s-225.143 100.571-225.143 225.143 100.571 225.143 225.143 225.143 225.143-100.571 225.143-225.143zM725.714 673.143c0-29.143-23.429-52.571-52.571-52.571s-52.571 23.429-52.571 52.571 23.429 52.571 52.571 52.571 52.571-23.429 52.571-52.571zM438.857 798.857c-64 0-201.143 5.143-258.857-17.714-20-8-34.857-17.714-50.286-33.143s-25.143-30.286-33.143-50.286c-22.857-57.714-17.714-194.857-17.714-258.857s-5.143-201.143 17.714-258.857c8-20 17.714-34.857 33.143-50.286s30.286-25.143 50.286-33.143c57.714-22.857 194.857-17.714 258.857-17.714s201.143-5.143 258.857 17.714c20 8 34.857 17.714 50.286 33.143s25.143 30.286 33.143 50.286c22.857 57.714 17.714 194.857 17.714 258.857s5.143 201.143-17.714 258.857c-8 20-17.714 34.857-33.143 50.286s-30.286 25.143-50.286 33.143c-57.714 22.857-194.857 17.714-258.857 17.714zM877.714 438.857c0-60.571 0.571-120.571-2.857-181.143-3.429-70.286-19.429-132.571-70.857-184s-113.714-67.429-184-70.857c-60.571-3.429-120.571-2.857-181.143-2.857s-120.571-0.571-181.143 2.857c-70.286 3.429-132.571 19.429-184 70.857s-67.429 113.714-70.857 184c-3.429 60.571-2.857 120.571-2.857 181.143s-0.571 120.571 2.857 181.143c3.429 70.286 19.429 132.571 70.857 184s113.714 67.429 184 70.857c60.571 3.429 120.571 2.857 181.143 2.857s120.571 0.571 181.143-2.857c70.286-3.429 132.571-19.429 184-70.857s67.429-113.714 70.857-184c3.429-60.571 2.857-120.571 2.857-181.143z" />
<glyph unicode="&#xf19d;" glyph-name="graduation-cap, mortar-board" horiz-adv-x="1317" d="M1013.714 473.143l10.286-180.571c4.571-80.571-164-146.286-365.714-146.286s-370.286 65.714-365.714 146.286l10.286 180.571 328-103.429c9.143-2.857 18.286-4 27.429-4s18.286 1.143 27.429 4zM1316.571 658.286c0-8-5.143-14.857-12.571-17.714l-640-201.143c-2.286-0.571-4-0.571-5.714-0.571s-3.429 0-5.714 0.571l-372.571 117.714c-32.571-25.714-55.429-88.571-60-165.714 21.714-12.571 36-35.429 36-62.286 0-25.714-13.143-48-33.143-61.143l33.143-247.429c0.571-5.143-1.143-10.286-4.571-14.286s-8.571-6.286-13.714-6.286h-109.714c-5.143 0-10.286 2.286-13.714 6.286s-5.143 9.143-4.571 14.286l33.143 247.429c-20 13.143-33.143 35.429-33.143 61.143 0 27.429 15.429 50.857 37.143 63.429 3.429 66.857 20.571 138.857 56 188.571l-190.286 59.429c-7.429 2.857-12.571 9.714-12.571 17.714s5.143 14.857 12.571 17.714l640 201.143c2.286 0.571 4 0.571 5.714 0.571s3.429 0 5.714-0.571l640-201.143c7.429-2.857 12.571-9.714 12.571-17.714z" />
<glyph unicode="&#xf1fd;" glyph-name="birthday-cake" d="M1024 146.286v-219.429h-1024v219.429c56 0 85.714 25.143 109.143 45.143 19.429 17.143 32.571 28 61.714 28s41.714-10.857 61.714-28c23.429-20 52.571-45.143 109.143-45.143 56 0 85.143 25.143 109.143 45.143 19.429 17.143 32 28 61.143 28s42.286-10.857 61.714-28c23.429-20 53.143-45.143 109.143-45.143s85.714 25.143 109.143 45.143c19.429 17.143 32.571 28 61.714 28 28.571 0 41.714-10.857 61.143-28 23.429-20 53.143-45.143 109.143-45.143zM1024 329.143v-109.714c-29.143 0-41.714 10.857-61.714 28-23.429 20-52.571 45.143-108.571 45.143-56.571 0-85.714-25.143-109.143-45.143-20-17.143-32.571-28-61.714-28s-42.286 10.857-61.714 28c-23.429 20-52.571 45.143-109.143 45.143-56 0-85.143-25.143-109.143-45.143-19.429-17.143-32-28-61.143-28s-42.286 10.857-61.714 28c-23.429 20-53.143 45.143-109.143 45.143-56.571 0-85.714-25.143-109.143-45.143-19.429-17.143-32.571-28-61.714-28v109.714c0 60.571 49.143 109.714 109.714 109.714h36.571v256h146.286v-256h146.286v256h146.286v-256h146.286v256h146.286v-256h36.571c60.571 0 109.714-49.143 109.714-109.714zM292.571 822.857c0-60.571-32.571-91.429-73.143-91.429s-73.143 32.571-73.143 73.143c0 70.857 73.143 52.571 73.143 146.286 27.429 0 73.143-67.429 73.143-128zM585.143 822.857c0-60.571-32.571-91.429-73.143-91.429s-73.143 32.571-73.143 73.143c0 70.857 73.143 52.571 73.143 146.286 27.429 0 73.143-67.429 73.143-128zM877.714 822.857c0-60.571-32.571-91.429-73.143-91.429s-73.143 32.571-73.143 73.143c0 70.857 73.143 52.571 73.143 146.286 27.429 0 73.143-67.429 73.143-128z" />
<glyph unicode="&#xf230;" glyph-name="facebook-official" horiz-adv-x="878" d="M829.143 877.714c26.857 0 48.571-21.714 48.571-48.571v-780.571c0-26.857-21.714-48.571-48.571-48.571h-223.429v340h113.714l17.143 132.571h-130.857v84.571c0 38.286 10.286 64 65.714 64l69.714 0.571v118.286c-12 1.714-53.714 5.143-101.714 5.143-101.143 0-170.857-61.714-170.857-174.857v-97.714h-114.286v-132.571h114.286v-340h-420c-26.857 0-48.571 21.714-48.571 48.571v780.571c0 26.857 21.714 48.571 48.571 48.571h780.571z" />
<glyph unicode="&#xf2c1;" glyph-name="id-badge" horiz-adv-x="731" d="M585.143 232c0-49.143-32.571-85.714-73.143-85.714h-292.571c-40.571 0-73.143 36.571-73.143 85.714 0 89.143 22.286 188 112 188 28-26.286 65.714-42.857 107.429-42.857s79.429 16.571 107.429 42.857c89.714 0 112-98.857 112-188zM497.143 528.571c0-72-58.857-129.714-131.429-129.714s-131.429 57.714-131.429 129.714c0 71.429 58.857 129.714 131.429 129.714s131.429-58.286 131.429-129.714zM658.286 18.286v786.286h-585.143v-786.286c0-9.714 8.571-18.286 18.286-18.286h548.571c9.714 0 18.286 8.571 18.286 18.286zM731.429 859.428v-841.143c0-50.286-41.143-91.429-91.429-91.429h-548.571c-50.286 0-91.429 41.143-91.429 91.429v841.143c0 50.286 41.143 91.429 91.429 91.429h201.143v-54.857c0-10.286 8-18.286 18.286-18.286h109.714c10.286 0 18.286 8 18.286 18.286v54.857h201.143c50.286 0 91.429-41.143 91.429-91.429z" />
</font></defs></svg>